<svg width="24" height="24" viewBox="0 0 24 24" fill="none" xmlns="http://www.w3.org/2000/svg" xmlns:xlink="http://www.w3.org/1999/xlink">
<rect width="24" height="24" fill="url(#pattern0)"/>
<defs>
<pattern id="pattern0" patternContentUnits="objectBoundingBox" width="1" height="1">
<use xlink:href="#image0" transform="scale(0.0208333)"/>
</pattern>
<image id="image0" width="48" height="48" xlink:href="data:image/png;base64,iVBORw0KGgoAAAANSUhEUgAAADAAAAAwCAQAAAD9CzEMAAAAAmJLR0QA/4ePzL8AAAArSURBVFjD7dQxDQAACASx928aNJCwQFoDt10CPFLLBOYBwCq8CLxIADivAfXHvG5HNqGfAAAAAElFTkSuQmCC"/>
</defs>
</svg>
