<svg width="80" height="80" viewBox="0 0 80 80" fill="none" xmlns="http://www.w3.org/2000/svg">
<path d="M79.3491 9.76516L75.8314 7.60032C75.3033 7.275 74.622 7.3461 74.1725 7.77375L72.2475 9.60344C70.4594 11.303 67.9914 11.9992 65.618 11.525C65.5592 9.91547 65.046 8.33485 64.1141 6.98438C62.7385 4.99079 60.5729 3.66517 58.1721 3.34735C53.7887 2.76736 49.7157 5.58876 48.6954 9.91047C48.0887 12.4805 47.3929 15.0261 46.6146 17.5447H46.0732C43.1537 17.5447 40.3954 18.6678 38.306 20.7073C36.7307 22.245 34.6512 23.0918 32.4498 23.0918H4.10188C2.28157 19.3658 2.28391 15.0678 4.09969 11.3505H43.7641C44.5196 11.3505 45.1318 10.7381 45.1318 9.98281C45.1318 9.2275 44.5196 8.61516 43.7641 8.61516H3.27329C2.77891 8.61516 2.32313 8.88188 2.0811 9.31281C-0.649519 14.1722 -0.695457 19.9998 1.95782 24.9018L2.07063 25.1104C2.30985 25.5518 2.77141 25.8268 3.27344 25.8268H32.4501C35.3696 25.8268 38.1279 24.7037 40.2171 22.6642C41.7099 21.2069 43.6562 20.3715 45.7291 20.2879C40.4581 35.9671 31.8882 50.4869 20.5962 62.7502C18.3059 65.2375 18.2947 68.9932 20.5698 71.4861L23.4295 74.6196C24.6459 75.9525 26.3789 76.721 28.1837 76.7278C28.1918 76.7278 28.1998 76.7278 28.2078 76.7278C29.9964 76.7278 31.7165 75.9778 32.9301 74.6678C47.3055 59.1505 57.8579 40.4609 63.6938 20.2798C63.6938 20.2798 62.7111 20.2798 68.1967 20.2798C73.6824 20.2798 78.5164 16.5822 79.9522 11.2878C80.1108 10.7028 79.8655 10.083 79.3491 9.76516ZM62.8638 12.3787C62.8614 12.3959 62.8602 12.413 62.8585 12.4303C62.8324 12.6701 62.7932 12.9103 62.7369 13.1498C57.5118 35.3542 46.5109 55.984 30.9237 72.8091C30.2162 73.5727 29.2525 73.9928 28.2085 73.9927C28.2039 73.9927 28.1987 73.9927 28.194 73.9927C27.1368 73.9886 26.1621 73.5564 25.4498 72.776L22.5901 69.6425C21.2786 68.2054 21.2864 66.0386 22.6084 64.603C36.6724 49.3293 46.6137 30.634 51.3577 10.5387C51.993 7.84672 54.3605 6.00735 57.0382 6.00735C57.2938 6.00735 57.5527 6.02407 57.8132 6.0586C59.4494 6.27516 60.9252 7.17891 61.8629 8.5375C62.6546 9.68531 62.9985 11.0255 62.8638 12.3787ZM68.1969 17.5448H64.4518C64.7435 16.4494 65.0214 15.3495 65.2852 14.2462C68.4622 14.8161 71.7424 13.8575 74.132 11.5862L75.2942 10.4816L76.997 11.5295C75.598 15.1166 72.1114 17.5448 68.1969 17.5448Z" fill="white"/>
<path d="M25.7743 68.6229C26.6149 68.6229 27.2964 67.9415 27.2964 67.1009C27.2964 66.2603 26.6149 65.5789 25.7743 65.5789C24.9338 65.5789 24.2523 66.2603 24.2523 67.1009C24.2523 67.9415 24.9338 68.6229 25.7743 68.6229Z" fill="#FF8A00"/>
</svg>
